-- Merging decision tree log ---
manifest
ADDED from C:\Users\SuperDroid\Desktop\52oyunu\app\src\main\AndroidManifest.xml:2:1-41:12
	xmlns:android
		ADDED from C:\Users\SuperDroid\Desktop\52oyunu\app\src\main\AndroidManifest.xml:2:11-69
	package
		ADDED from C:\Users\SuperDroid\Desktop\52oyunu\app\src\main\AndroidManifest.xml:3:5-33
		INJECTED from C:\Users\SuperDroid\Desktop\52oyunu\app\src\main\AndroidManifest.xml
		INJECTED from C:\Users\SuperDroid\Desktop\52oyunu\app\src\main\AndroidManifest.xml
	android:versionName
		ADDED from C:\Users\SuperDroid\Desktop\52oyunu\app\src\main\AndroidManifest.xml:5:5-30
		INJECTED from C:\Users\SuperDroid\Desktop\52oyunu\app\src\main\AndroidManifest.xml
		INJECTED from C:\Users\SuperDroid\Desktop\52oyunu\app\src\main\AndroidManifest.xml
	android:versionCode
		ADDED from C:\Users\SuperDroid\Desktop\52oyunu\app\src\main\AndroidManifest.xml:4:5-28
		INJECTED from C:\Users\SuperDroid\Desktop\52oyunu\app\src\main\AndroidManifest.xml
		INJECTED from C:\Users\SuperDroid\Desktop\52oyunu\app\src\main\AndroidManifest.xml
uses-permission#android.permission.ACCESS_NETWORK_STATE
ADDED from C:\Users\SuperDroid\Desktop\52oyunu\app\src\main\AndroidManifest.xml:6:5-79
	android:name
		ADDED from C:\Users\SuperDroid\Desktop\52oyunu\app\src\main\AndroidManifest.xml:6:22-76
uses-permission#android.permission.INTERNET
ADDED from C:\Users\SuperDroid\Desktop\52oyunu\app\src\main\AndroidManifest.xml:7:5-67
	android:name
		ADDED from C:\Users\SuperDroid\Desktop\52oyunu\app\src\main\AndroidManifest.xml:7:22-64
uses-sdk
ADDED from C:\Users\SuperDroid\Desktop\52oyunu\app\src\main\AndroidManifest.xml:8:5-10:41
MERGED from [com.android.support:appcompat-v7:23.4.0] C:\Users\SuperDroid\Desktop\52oyunu\app\build\intermediates\exploded-aar\com.android.support\appcompat-v7\23.4.0\AndroidManifest.xml:21:5-23:78
MERGED from [com.android.support:animated-vector-drawable:23.4.0] C:\Users\SuperDroid\Desktop\52oyunu\app\build\intermediates\exploded-aar\com.android.support\animated-vector-drawable\23.4.0\AndroidManifest.xml:5:5-44
MERGED from [com.android.support:support-vector-drawable:23.4.0] C:\Users\SuperDroid\Desktop\52oyunu\app\build\intermediates\exploded-aar\com.android.support\support-vector-drawable\23.4.0\AndroidManifest.xml:5:5-43
MERGED from [com.android.support:support-v4:23.4.0] C:\Users\SuperDroid\Desktop\52oyunu\app\build\intermediates\exploded-aar\com.android.support\support-v4\23.4.0\AndroidManifest.xml:20:5-43
MERGED from [com.android.support:support-v4:23.4.0] C:\Users\SuperDroid\Desktop\52oyunu\app\build\intermediates\exploded-aar\com.android.support\support-v4\23.4.0\AndroidManifest.xml:20:5-43
MERGED from [com.android.support:support-vector-drawable:23.4.0] C:\Users\SuperDroid\Desktop\52oyunu\app\build\intermediates\exploded-aar\com.android.support\support-vector-drawable\23.4.0\AndroidManifest.xml:5:5-43
MERGED from [com.android.support:support-v4:23.4.0] C:\Users\SuperDroid\Desktop\52oyunu\app\build\intermediates\exploded-aar\com.android.support\support-v4\23.4.0\AndroidManifest.xml:20:5-43
MERGED from [com.google.android.gms:play-services:6.5.87] C:\Users\SuperDroid\Desktop\52oyunu\app\build\intermediates\exploded-aar\com.google.android.gms\play-services\6.5.87\AndroidManifest.xml:18:5-42
MERGED from [com.android.support:support-v4:23.4.0] C:\Users\SuperDroid\Desktop\52oyunu\app\build\intermediates\exploded-aar\com.android.support\support-v4\23.4.0\AndroidManifest.xml:20:5-43
	android:targetSdkVersion
		ADDED from C:\Users\SuperDroid\Desktop\52oyunu\app\src\main\AndroidManifest.xml:10:9-38
		INJECTED from C:\Users\SuperDroid\Desktop\52oyunu\app\src\main\AndroidManifest.xml
		INJECTED from C:\Users\SuperDroid\Desktop\52oyunu\app\src\main\AndroidManifest.xml
	android:minSdkVersion
		ADDED from C:\Users\SuperDroid\Desktop\52oyunu\app\src\main\AndroidManifest.xml:9:9-34
		INJECTED from C:\Users\SuperDroid\Desktop\52oyunu\app\src\main\AndroidManifest.xml
		INJECTED from C:\Users\SuperDroid\Desktop\52oyunu\app\src\main\AndroidManifest.xml
	tools:overrideLibrary
		ADDED from [com.android.support:appcompat-v7:23.4.0] C:\Users\SuperDroid\Desktop\52oyunu\app\build\intermediates\exploded-aar\com.android.support\appcompat-v7\23.4.0\AndroidManifest.xml:23:9-75
application
ADDED from C:\Users\SuperDroid\Desktop\52oyunu\app\src\main\AndroidManifest.xml:12:5-39:19
MERGED from [com.android.support:appcompat-v7:23.4.0] C:\Users\SuperDroid\Desktop\52oyunu\app\build\intermediates\exploded-aar\com.android.support\appcompat-v7\23.4.0\AndroidManifest.xml:25:5-20
MERGED from [com.android.support:animated-vector-drawable:23.4.0] C:\Users\SuperDroid\Desktop\52oyunu\app\build\intermediates\exploded-aar\com.android.support\animated-vector-drawable\23.4.0\AndroidManifest.xml:7:5-20
MERGED from [com.android.support:support-vector-drawable:23.4.0] C:\Users\SuperDroid\Desktop\52oyunu\app\build\intermediates\exploded-aar\com.android.support\support-vector-drawable\23.4.0\AndroidManifest.xml:7:5-20
MERGED from [com.android.support:support-v4:23.4.0] C:\Users\SuperDroid\Desktop\52oyunu\app\build\intermediates\exploded-aar\com.android.support\support-v4\23.4.0\AndroidManifest.xml:22:5-20
MERGED from [com.android.support:support-v4:23.4.0] C:\Users\SuperDroid\Desktop\52oyunu\app\build\intermediates\exploded-aar\com.android.support\support-v4\23.4.0\AndroidManifest.xml:22:5-20
MERGED from [com.android.support:support-vector-drawable:23.4.0] C:\Users\SuperDroid\Desktop\52oyunu\app\build\intermediates\exploded-aar\com.android.support\support-vector-drawable\23.4.0\AndroidManifest.xml:7:5-20
MERGED from [com.android.support:support-v4:23.4.0] C:\Users\SuperDroid\Desktop\52oyunu\app\build\intermediates\exploded-aar\com.android.support\support-v4\23.4.0\AndroidManifest.xml:22:5-20
MERGED from [com.google.android.gms:play-services:6.5.87] C:\Users\SuperDroid\Desktop\52oyunu\app\build\intermediates\exploded-aar\com.google.android.gms\play-services\6.5.87\AndroidManifest.xml:20:5-24:19
MERGED from [com.android.support:support-v4:23.4.0] C:\Users\SuperDroid\Desktop\52oyunu\app\build\intermediates\exploded-aar\com.android.support\support-v4\23.4.0\AndroidManifest.xml:22:5-20
	android:label
		ADDED from C:\Users\SuperDroid\Desktop\52oyunu\app\src\main\AndroidManifest.xml:15:9-41
	android:allowBackup
		ADDED from C:\Users\SuperDroid\Desktop\52oyunu\app\src\main\AndroidManifest.xml:13:9-35
	android:icon
		ADDED from C:\Users\SuperDroid\Desktop\52oyunu\app\src\main\AndroidManifest.xml:14:9-43
	android:theme
		ADDED from C:\Users\SuperDroid\Desktop\52oyunu\app\src\main\AndroidManifest.xml:16:9-40
meta-data#com.google.android.gms.version
ADDED from C:\Users\SuperDroid\Desktop\52oyunu\app\src\main\AndroidManifest.xml:18:9-20:69
MERGED from [com.google.android.gms:play-services:6.5.87] C:\Users\SuperDroid\Desktop\52oyunu\app\build\intermediates\exploded-aar\com.google.android.gms\play-services\6.5.87\AndroidManifest.xml:21:9-23:69
	android:name
		ADDED from C:\Users\SuperDroid\Desktop\52oyunu\app\src\main\AndroidManifest.xml:19:13-58
	android:value
		ADDED from C:\Users\SuperDroid\Desktop\52oyunu\app\src\main\AndroidManifest.xml:20:13-66
activity#com.google.android.gms.ads.AdActivity
ADDED from C:\Users\SuperDroid\Desktop\52oyunu\app\src\main\AndroidManifest.xml:22:9-24:125
	android:configChanges
		ADDED from C:\Users\SuperDroid\Desktop\52oyunu\app\src\main\AndroidManifest.xml:24:13-122
	android:name
		ADDED from C:\Users\SuperDroid\Desktop\52oyunu\app\src\main\AndroidManifest.xml:23:13-65
activity#com.gojolo.oyunu52.MainActivity
ADDED from C:\Users\SuperDroid\Desktop\52oyunu\app\src\main\AndroidManifest.xml:26:9-34:20
	android:label
		ADDED from C:\Users\SuperDroid\Desktop\52oyunu\app\src\main\AndroidManifest.xml:28:13-45
	android:name
		ADDED from C:\Users\SuperDroid\Desktop\52oyunu\app\src\main\AndroidManifest.xml:27:13-41
intent-filter#android.intent.action.MAIN+android.intent.category.LAUNCHER
ADDED from C:\Users\SuperDroid\Desktop\52oyunu\app\src\main\AndroidManifest.xml:29:13-33:29
action#android.intent.action.MAIN
ADDED from C:\Users\SuperDroid\Desktop\52oyunu\app\src\main\AndroidManifest.xml:30:17-69
	android:name
		ADDED from C:\Users\SuperDroid\Desktop\52oyunu\app\src\main\AndroidManifest.xml:30:25-66
category#android.intent.category.LAUNCHER
ADDED from C:\Users\SuperDroid\Desktop\52oyunu\app\src\main\AndroidManifest.xml:32:17-77
	android:name
		ADDED from C:\Users\SuperDroid\Desktop\52oyunu\app\src\main\AndroidManifest.xml:32:27-74
activity#com.gojolo.oyunu52.Game
ADDED from C:\Users\SuperDroid\Desktop\52oyunu\app\src\main\AndroidManifest.xml:35:9-38:20
	android:label
		ADDED from C:\Users\SuperDroid\Desktop\52oyunu\app\src\main\AndroidManifest.xml:37:13-56
	android:name
		ADDED from C:\Users\SuperDroid\Desktop\52oyunu\app\src\main\AndroidManifest.xml:36:13-33
